Problem 2
…
## Getting data, page 3

## Getting data, page 4

## Getting data, page 5

## Getting data, page 6

``

nyc_inspections %>%
  janitor::clean_names() %>% 
  select(camis, boro, zipcode, cuisine_description, violation_code, score, grade, inspection_type, latitude, longitude, grade_date)

## # A tibble: 111,106 × 11
##    camis    boro      zipcode cuisine_description     violation_code score grade
##    <chr>    <chr>     <chr>   <chr>                   <chr>          <chr> <chr>
##  1 50132187 Manhattan 10000   Sandwiches/Salads/Mixe… 10F            13    A    
##  2 50132187 Manhattan 10000   Sandwiches/Salads/Mixe… 04K            13    A    
##  3 50132187 Manhattan 10000   Sandwiches/Salads/Mixe… 10B            13    A    
##  4 50132187 Manhattan 10000   Sandwiches/Salads/Mixe… 06D            8     A    
##  5 50132187 Manhattan 10000   Sandwiches/Salads/Mixe… 08A            13    A    
##  6 50132187 Manhattan 10000   Sandwiches/Salads/Mixe… 04L            13    A    
##  7 50147715 Manhattan 10000   French                  08B            19    Z    
##  8 50132187 Manhattan 10000   Sandwiches/Salads/Mixe… 10F            8     A    
##  9 50147715 Manhattan 10000   French                  04N            19    Z    
## 10 50147715 Manhattan 10000   French                  08A            19    Z    
## # ℹ 111,096 more rows
## # ℹ 4 more variables: inspection_type <chr>, latitude <chr>, longitude <chr>,
## #   grade_date <chr>
…
